内在能力建模
…
    intersect, setdiff, setequal, union

library(ggplot2)

# 读取并合并数据
files <- list.files("data_raw/self",
    pattern = "\\.dta$",
    full.names = TRUE
)
data_list <- lapply(files, read_dta)
my_data_raw <- Reduce(function(x, y) full_join(x, y, by = "ID"), data_list)
print(my_data_raw)

# A tibble: 21,805 × 7,595
   ID        householdID.x communityID.x pa001   pa002   qa001s1 qa001s2 qa001s3
   <chr>     <chr>         <chr>         <dbl+l> <dbl+l> <dbl+l> <dbl+l> <dbl+l>
 1 09400410… 0940041030    0940041       5 [5 N… 1 [1 Y… NA      NA      NA     
 2 09400411… 0940041100    0940041       5 [5 N… 1 [1 Y… NA      NA      NA     
 3 09400410… 0940041080    0940041       5 [5 N… 1 [1 Y… NA      NA      NA     
 4 09400411… 0940041120    0940041       5 [5 N… 1 [1 Y… NA      NA      NA     
 5 09400411… 0940041120    0940041       5 [5 N… 1 [1 Y… NA      NA      NA     
 6 09400411… 0940041140    0940041       5 [5 N… 1 [1 Y… NA      NA      NA     
 7 09400411… 0940041190    0940041       5 [5 N… 1 [1 Y… NA      NA      NA     
 8 09400411… 0940041170    0940041       5 [5 N… 1 [1 Y… NA      NA      NA     
 9 09400411… 0940041170    0940041       5 [5 N… 1 [1 Y… NA      NA      NA     
10 09400431… 0940043100    0940043       5 [5 N… 1 [1 Y… NA      NA      NA     
# ℹ 21,795 more rows
# ℹ 7,587 more variables: qa001s4 <dbl+lbl>, qa001s5 <dbl+lbl>,
#   qa001s6 <dbl+lbl>, qa001s7 <dbl+lbl>, qa001s8 <dbl+lbl>,
#   qa001s97 <dbl+lbl>, qa002 <chr>, qa002_1 <chr>, qa003 <dbl>, qa004 <dbl>,
#   qa005 <dbl>, qa006 <chr>, qa006_1 <chr>, qa007 <dbl>, qa008 <dbl>,
#   qa009 <dbl>, qa010 <chr>, qa010_1 <chr>, qa011 <dbl>, qa012 <dbl>,
#   qa013 <dbl>, qa014 <dbl+lbl>, qa015 <dbl+lbl>, qa016 <dbl+lbl>, …
…
# 计算覆盖百分之百内在能力变量的个体数量
covered_individuals <- my_data_final %>%
    filter(!is.na(final_physical_score) & !is.na(cognitive_level) & !is.na(final_psychological_score) & !is.na(final_sensory_score) & !is.na(final_vitality_score))

# 输出覆盖百分之百内在能力变量的个体数量
covered_count <- nrow(covered_individuals)
print(paste("覆盖百分之百内在能力变量的个体数量:", covered_count))

[1] "覆盖百分之百内在能力变量的个体数量: 3384"

# 导出成一个新的数据框
write.csv(my_data_final, "final_data.csv", row.names = FALSE)
covered_individuals

# A tibble: 3,384 × 6
   ID           final_physical_score cognitive_level final_psychological_score
   <chr>                       <dbl>           <dbl>                     <dbl>
 1 094004103001                    2               0                         2
 2 094004112001                    1               3                         3
 3 094004317002                    1               3                         2
 4 094004303001                    2               3                         3
 5 094004303002                    2               3                         3
 6 094004307001                    3               3                         3
 7 094004307002                    2               3                         2
 8 194037213001                    2               2                         2
 9 194037223002                    1               3                         3
10 194037219002                    3               1                         3
# ℹ 3,374 more rows
# ℹ 2 more variables: final_sensory_score <dbl>, final_vitality_score <dbl>
…
